…
Top 10 location of the tweets

This gives us the top 10 locations of the tweets

t5<-war %>% 
  filter(!is.na(place_full_name)) %>%  
  count(place_full_name, sort = TRUE) %>% 
  top_n(5) #top 5 locations 

## Selecting by n

print(t5)

## # A tibble: 23 x 2
##    place_full_name               n
##    <chr>                     <int>
##  1 Manhattan, NY                 2
##  2 Amityville, NY                1
##  3 Anchorage, AK                 1
##  4 Blasdell, NY                  1
##  5 Charlotte, NC                 1
##  6 District of Columbia, USA     1
##  7 Edmond, OK                    1
##  8 Florida, USA                  1
##  9 Hillsborough, NC              1
## 10 Irvine, CA                    1
## # ... with 13 more rows
…
